<?xml version="1.0" encoding="utf-8"?>
<!-- Generator: Adobe Illustrator 16.0.3, SVG Export Plug-In . SVG Version: 6.00 Build 0)  -->
<!DOCTYPE svg PUBLIC "-//W3C//DTD SVG 1.1//EN" "http://www.w3.org/Graphics/SVG/1.1/DTD/svg11.dtd">
<svg version="1.1" id="Capa_1" xmlns="http://www.w3.org/2000/svg" xmlns:xlink="http://www.w3.org/1999/xlink" x="0px" y="0px"
	 width="16331.253px" height="12611.132px" viewBox="36.553 1865.592 16331.253 12611.132"
	 enable-background="new 36.553 1865.592 16331.253 12611.132" xml:space="preserve">
<g id="Especificaciones">
	<path fill="#424242" d="M16237.227,8461.261V2706.148c-3.724-465.32-382.001-840.571-847.337-840.557H5309.971
		c-465.337-0.015-843.614,375.236-847.336,840.557v4934.891c-460.243,25.163-915.609,107.131-1355.74,244.032
		c-962.574,366.052-2264.083,2175.963-2962.288,3226.658c-183.109,298.551-129.125,684.97,128.795,921.905l2325.092,2250.523
		c279.94,256.754,709.749,256.754,989.689,0c955.796-854.117,1782.796-1396.41,2175.961-1396.41
		c1660.78,0,2033.608,0,3138.535-81.345l786.329-47.45c500.271,5.394,997.771-74.852,1470.977-237.256
		c1230.151-454.358,2391.334-1077.153,3450.355-1850.582c406.295-282.372,797.723-585.561,1172.714-908.345
		c144.363-75.751,264.25-190.937,345.715-332.157c100.128-93.855,176.763-209.968,223.694-338.932
		C16393.201,8874.52,16352.154,8649.967,16237.227,8461.261z M4910.027,2706.148c0-220.881,179.061-399.94,399.943-399.94l0,0
		H15389.89c220.543,3.497,399.515,179.487,406.721,399.94v1260.839H4910.027V2706.148z M4910.027,5654.883H15796.61v2433.55
		c-243.468-113.575-511.353-164.824-779.549-149.131c-805.855,148.365-1572.176,462.278-2250.526,921.901
		c-399.944,230.479-820.223,460.953-1213.387,637.197c-754.589,282.248-1565.756,379.867-2365.765,284.705
		c406.721-115.235,772.771-210.142,921.901-271.147c1098.149-488.065,1457.42-1355.739,1355.739-1931.927
		c-48.451-391.964-384.656-684.316-779.549-677.869c-538.242,20.114-1073.619,88.171-1599.772,203.36
		c-460.951,88.124-1043.919,196.582-1870.92,311.819c-562.631,74.565-1165.935,108.459-1748.902,149.132h-535.517L4910.027,5654.883
		z M11010.854,11999.74c-434.666,155.303-894.314,228.85-1355.741,216.916l-786.326,40.674
		c-1118.485,61.007-1457.42,81.344-3104.642,81.344c-677.87,0-1769.239,847.336-2548.79,1552.32
		c-64.999,60.284-165.476,60.284-230.476,0L659.787,11633.689c-49.766-63.74-49.766-153.172,0-216.918
		C1764.714,9755.99,2774.739,8630.729,3371.263,8400.253c700.915-174.097,1419.882-265.104,2142.069-271.146
		c589.747-33.895,1206.607-67.789,1782.796-149.134c847.337-115.236,1437.083-223.696,1904.813-311.82
		c474.331-109.173,957.61-174.971,1443.862-196.582l0,0c149.131,0,203.36,122.017,223.696,223.698
		c67.787,311.819-142.352,921.902-1010.025,1308.287c-115.238,47.451-501.623,155.91-847.337,250.812
		c-415.934,102.857-825.593,229.604-1226.943,379.607l-1118.483,528.738h1267.615c298.261,61.007,2447.108,494.843,3877.412-155.91
		c420.28-189.803,847.337-427.06,1254.059-677.871c617.891-410.493,1307.91-700.304,2033.607-854.112l0,0
		c245.799-20.586,489.688,57.457,677.87,216.916c25.196,30.73,45.75,64.99,61.007,101.68v169.467
		c-1398.463,1326.697-3048.874,2359.357-4853.544,3036.857H11010.854z"/>
</g>
</svg>
