<?xml version="1.0" encoding="utf-8"?>
<!-- Generator: Adobe Illustrator 16.0.3, SVG Export Plug-In . SVG Version: 6.00 Build 0)  -->
<!DOCTYPE svg PUBLIC "-//W3C//DTD SVG 1.1//EN" "http://www.w3.org/Graphics/SVG/1.1/DTD/svg11.dtd">
<svg version="1.1" id="Capa_1" xmlns="http://www.w3.org/2000/svg" xmlns:xlink="http://www.w3.org/1999/xlink" x="0px" y="0px"
	 width="15590.043px" height="15573.33px" viewBox="412.852 404.671 15590.043 15573.33"
	 enable-background="new 412.852 404.671 15590.043 15573.33" xml:space="preserve">
<title>Icono_notification</title>
<g id="Iconos_IBK">
	<path fill="#FFFFFF" d="M14554.639,10216.426L14554.639,10216.426c-135.529-77.824-257.303-177.457-360.424-294.893
		c-240.355-742.998-361.994-1519.264-360.426-2300.171c-17.619-2138.741-1254.084-4079.942-3184.852-5000.085
		c-140.359-1357.211-1354.379-2343.664-2711.59-2203.306C6773.967,538.285,5854.356,1457.896,5734.043,2621.277
		C3805.828,3543.292,2572.15,5484.108,2555.745,7621.362c2.088,778.803-119.57,1552.991-360.426,2293.618
		c-110.808,132.309-246.654,241.432-399.744,321.105c-846.119,530.186-1366.475,1452.521-1382.724,2450.895v858.467
		c3.598,438.986,360.489,792.953,799.489,792.938h4685.532c459.285,1284.826,1873.167,1954.059,3157.992,1494.773
		c697.029-249.166,1245.607-797.744,1494.773-1494.773h4652.768c438.998,0.016,795.891-353.951,799.488-792.936v-858.469
		C15971.879,11670.707,15426.256,10739.934,14554.639,10216.426z M8191.489,15458.98
		c-752.972-8.361-1435.014-446.09-1756.256-1127.148h3512.511C9626.504,15012.889,8944.463,15450.619,8191.489,15458.98
		L8191.489,15458.98z M15439.32,13545.447c0.045,144.77-117.277,262.164-262.047,262.211c-2.211,0-4.422-0.027-6.635-0.082H1212.341
		c-144.725,3.619-264.98-110.77-268.6-255.492c-0.055-2.213-0.082-4.424-0.081-6.637v-858.467
		c16.638-821.619,448.308-1578.893,1146.809-2011.83c232.19-127.883,430.033-309.988,576.681-530.809
		c276.174-812.379,415.685-1664.943,412.852-2522.979c15.344-1990.714,1198.23-3786.854,3021.021-4587.234
		c91.64-39.371,150.948-129.623,150.723-229.361c176.714-1071.292,1188.421-1796.491,2259.712-1619.777
		c831.207,137.109,1482.668,788.571,1619.777,1619.777c-0.225,99.738,59.084,189.99,150.725,229.361
		c1821.666,801.711,3004.01,2597.027,3021.021,4587.234c-3.447,855.944,136.088,1706.453,412.85,2516.426
		c130.348,219.223,318.527,398.334,543.914,517.703c715.957,429.676,1161.322,1196.697,1179.574,2031.49L15439.32,13545.447z"/>
</g>
</svg>
