{
	"programa": "SRMR013",
	"copy":"<p>*==============================================================*<br/>*COPY:SRMCRCS*<br/>*L.REG:800*<br/>*OBJETIVO:BRINDARRELACIONDECLIENTESPORCUENTA(CIS)*<br/>*--------------------------------------------------------------*<br/>*RM-CRETORNO'00':OK(RETORNAINFORMACION)*<br/>*'01':ERRORENDATOSDEINPUT.*<br/>*'02':CUENTASINCLIENTESASIGNADOS*<br/>*'97':ERRORENRUTINA(BATCH)*<br/>*'98':ERRORENCICS(VERRETURN-CODE-CICS)*<br/>*--------------------------------------------------------------*<br/>*RM-ACCION'O'OPEN,'C'CLOSE,'R'READ*<br/>*RM-FUNCTION'':PORCUENTA*<br/>*==============================================================*<br/>02RM-REL-CUSTOMER-FOR-ACCOUNT.<br/>03RM-INPUT.<br/>*--------------------------------------------------01-49-------*<br/>001001*FUNCIONAREALIZAR('O':OPEN,'C':CLOSE,'R':READ)<br/>04RM-ACCIONPICX(01).<br/>002002*FORMADEACCESO(USOFUTURO)<br/>04RM-FUNCTIONPICX(01).<br/>003049*CODIGODELACUENTAQUESEDESEACONSULTAR<br/>04RM-INPUT-ACCT.<br/>003004*CONSTANTE'AC'<br/>05RM-FROM-ENT-CDPICX(02).<br/>005006*APLICACION(IM:05ST:10IC:25XS:45XL:50)<br/>05RM-FROM-APPL-CDPICX(02).<br/>007022*CODIGOSDECONTROL<br/>05RM-ACCT-CTLS.<br/>007010*INDICAINSTITUCION(0003:IB)<br/>06RM-CTL1-ACCTPICX(04).<br/>011014*INDICAMONEDA(0001:SOLES0010:DOLARES)<br/>06RM-CTL2-ACCTPICX(04).<br/>015018*INDICAOFICINA(0100:OFICINAPRINCIPAL)<br/>06RM-CTL3-ACCTPICX(04).<br/>019022*INDICATIPODEPRODUCTO<br/>06RM-CTL4-ACCTPICX(04).<br/>023049*NUMERODELACUENTA<br/>05RM-ACCT-NBRPICX(27).<br/>*<br/>03RM-OUTPUT.<br/>*--------------------------------------------------50-800------*<br/>050051*CODIGODERETORNO(DEACUERDOALOINDICADOARRIBA)<br/>04RM-RETURN-CODEPICX(02).<br/>052053*CODIGODERETORNOCICS(SICODIGORETORNO=98)<br/>04RM-RETURN-CODE-CICSPICX(02).<br/>*-----------------------------------------------------04-------*<br/>054653*RELACIONDECLIENTES<br/>04RM-REL-CUSTOCCURS4TIMES.<br/>*JERARQUIA(PRI:PRINCIPALSEC:SECUNDARIO)<br/>05RMCMACRL-FROM-REL-CDPICX(03).<br/>*TIPOTIT.LEGAL(IND:INDIVMYO:MANC.Y/OMAY:MANCY)<br/>05RMCMACRL-TO-REL-CDPICX(03).<br/>*POSICIONTITULOLEGAL(SECUENCIAL1,2,3o4)<br/>05RMCMACRL-LEGAL-TITL-POSPICX(01).<br/>*CODIGODELCLIENTE<br/>05RMCMACRL-CUST-KEYPICX(30).<br/>*NOMBREDELCLIENTE<br/>05RMCMRTCS-NAME-LINE-1PICX(40).<br/>*TIPODECLIENTE(P:PERSONAL,C:COMERCIAL)<br/>05RMCMRTCS-CUST-TYP-CDPICX(01).<br/>*TIPODEDOCUMENTO(REVISARDOCUMENTACIONACS)<br/>05RMCMRTCS-TIN-CDPICX(01).<br/>*DOCUMENTODEIDENTIDAD<br/>05RMCMRTCS-TINPICX(11).<br/>*DIRECCION<br/>05RMCMRTCS-DISP-ADDRPICX(60).<br/>*SITUACION(REVISARDOCUMENTACIONACS)<br/>05RMCMRTCS-CUST-STAT-CDPICX(02).<br/>*SECTORISTA<br/>05RMCMRTCS-CUST-OFF-CDPICX(05).<br/>*-----------------------------------------------------628-----*<br/>*CODIGODERETORNOARCHIVOCERRADO<br/>04RM-RETURN-CODE-NOTOPENPICX(02).<br/>*-----------------------------------------------------628-----*<br/>*SEGMENTACIONDELOSCLIENTES<br/>04RM-SEG-CUSTOCCURS4TIMES.<br/>05RMCMACRL-SEGM-CUSTPICX(02).<br/>*-------------------------------------------------------------*<br/>04FILLERPICX(109).<br/>*---------------------------------------------------800-------*<br/></p>"
}